{
	"commentStamp" : "",
	"super" : "Object",
	"category" : "DomainValidationMagritte-Features",
	"classinstvars" : [ ],
	"pools" : [ ],
	"classvars" : [ ],
	"instvars" : [ ],
	"name" : "DescribedClass",
	"type" : "normal"
}