{
	"commentStamp" : "<historical>",
	"super" : "ProcessLocalVariable",
	"category" : "ValidationNotification-Core",
	"classinstvars" : [ ],
	"pools" : [ ],
	"classvars" : [ ],
	"instvars" : [ ],
	"name" : "ProcessLocalObservers",
	"type" : "normal"
}