{
	"commentStamp" : "",
	"super" : "Feature",
	"category" : "DomainValidationMagritte-Features",
	"classinstvars" : [ ],
	"pools" : [ ],
	"classvars" : [ ],
	"instvars" : [ ],
	"name" : "Validate_Domain_With_Magritte_Feature",
	"type" : "normal"
}